<?xml version="1.0" encoding="UTF-8"?>
<svg xmlns="http://www.w3.org/2000/svg" width="16pt" height="16pt" viewBox="0 0 16 16" version="1.1">
    <g id="surface1">
        <path style=" stroke:none;fill-rule:nonzero;fill:rgb(11.764706%,41.960784%,100%);fill-opacity:1;"
              d="M 2.300781 13.699219 C 1.875 13.273438 1.875 2.726562 2.300781 2.300781 C 2.5 2.101562 3.5 2 5.175781 2 L 7.75 2 L 7.75 1.375 C 7.75 0.773438 7.800781 0.75 9.5 0.75 C 11.199219 0.75 11.25 0.773438 11.25 1.375 C 11.25 1.949219 11.351562 2 12.324219 2 C 12.925781 2 13.523438 2.125 13.699219 2.300781 C 14.125 2.726562 14.125 13.273438 13.699219 13.699219 C 13.273438 14.125 2.726562 14.125 2.300781 13.699219 Z M 13.101562 13.101562 C 13.425781 12.773438 13.5 11.949219 13.5 8 C 13.5 2.800781 13.425781 2.5 11.976562 2.5 L 11.25 2.5 L 11.25 6.199219 C 11.226562 9.726562 11.199219 9.898438 10.625 10.574219 C 10.300781 10.949219 9.800781 11.25 9.5 11.25 C 9.199219 11.25 8.699219 10.949219 8.375 10.574219 C 7.800781 9.898438 7.773438 9.726562 7.75 6.199219 L 7.75 2.5 L 5.523438 2.5 C 3.824219 2.5 3.199219 2.601562 2.898438 2.898438 C 2.300781 3.476562 2.300781 12.523438 2.898438 13.101562 C 3.476562 13.699219 12.523438 13.699219 13.101562 13.101562 Z M 9.949219 9.324219 C 9.699219 9.273438 9.300781 9.273438 9.074219 9.324219 C 8.824219 9.398438 9.023438 9.449219 9.5 9.449219 C 9.976562 9.449219 10.175781 9.398438 9.949219 9.324219 Z M 8.75 6.101562 C 8.75 4.699219 8.648438 3.75 8.5 3.75 C 8.351562 3.75 8.25 4.75 8.25 6.273438 C 8.25 7.875 8.351562 8.726562 8.5 8.625 C 8.648438 8.550781 8.75 7.425781 8.75 6.101562 Z M 10.75 6.25 C 10.75 4.75 10.648438 3.75 10.5 3.75 C 10.226562 3.75 10.148438 8.300781 10.425781 8.574219 C 10.726562 8.898438 10.75 8.75 10.75 6.25 Z M 9.75 6.125 C 9.75 4.699219 9.648438 3.75 9.5 3.75 C 9.351562 3.75 9.25 4.699219 9.25 6.125 C 9.25 7.550781 9.351562 8.5 9.5 8.5 C 9.648438 8.5 9.75 7.550781 9.75 6.125 Z M 10.699219 2.324219 C 10.625 1.375 10.625 1.375 9.5 1.375 C 8.375 1.375 8.375 1.375 8.300781 2.324219 L 8.226562 3.25 L 10.773438 3.25 Z M 10.699219 2.324219 "/>
        <path style=" stroke:none;fill-rule:nonzero;fill:rgb(11.764706%,41.960784%,100%);fill-opacity:1;"
              d="M 3.25 8 L 3.25 3.25 L 5.25 3.25 C 7.675781 3.25 7.925781 3.699219 5.574219 3.800781 L 3.875 3.875 L 3.875 12.125 L 12.125 12.125 L 12.199219 8.148438 C 12.226562 5.648438 12.175781 4.074219 12 3.898438 C 11.601562 3.5 11.699219 3.25 12.25 3.25 C 12.726562 3.25 12.75 3.425781 12.75 8 L 12.75 12.75 L 3.25 12.75 Z M 3.25 8 "/>
        <path style=" stroke:none;fill-rule:nonzero;fill:rgb(11.764706%,41.960784%,100%);fill-opacity:1;"
              d="M 8.75 2.25 C 8.75 2.125 9.101562 2 9.5 2 C 9.925781 2 10.25 2.125 10.25 2.25 C 10.25 2.398438 9.925781 2.5 9.5 2.5 C 9.101562 2.5 8.75 2.398438 8.75 2.25 Z M 8.75 2.25 "/>
        <path style=" stroke:none;fill-rule:nonzero;fill:rgb(18.039216%,39.215686%,100%);fill-opacity:1;"
              d="M 2.300781 13.699219 C 1.875 13.273438 1.875 2.726562 2.300781 2.300781 C 2.5 2.101562 3.5 2 5.175781 2 C 6.726562 2 7.75 1.898438 7.75 1.75 C 7.75 1.625 7.875 1.5 8 1.5 C 8.148438 1.5 8.25 1.898438 8.25 2.375 L 8.25 3.25 L 10.800781 3.25 L 10.699219 2.273438 C 10.648438 1.574219 10.699219 1.351562 10.925781 1.425781 C 11.101562 1.5 11.25 1.648438 11.25 1.773438 C 11.25 1.898438 11.726562 2 12.324219 2 C 12.925781 2 13.523438 2.125 13.699219 2.300781 C 14.125 2.726562 14.125 13.273438 13.699219 13.699219 C 13.273438 14.125 2.726562 14.125 2.300781 13.699219 Z M 13.101562 13.101562 C 13.425781 12.773438 13.5 11.949219 13.5 8 C 13.5 2.800781 13.425781 2.5 11.976562 2.5 L 11.25 2.5 L 11.25 6.199219 C 11.226562 9.726562 11.199219 9.898438 10.625 10.574219 C 10.300781 10.949219 9.800781 11.25 9.5 11.25 C 9.199219 11.25 8.699219 10.949219 8.375 10.574219 C 7.800781 9.898438 7.773438 9.726562 7.75 6.199219 L 7.75 2.5 L 5.523438 2.5 C 3.824219 2.5 3.199219 2.601562 2.898438 2.898438 C 2.300781 3.476562 2.300781 12.523438 2.898438 13.101562 C 3.476562 13.699219 12.523438 13.699219 13.101562 13.101562 Z M 9.949219 9.324219 C 9.699219 9.273438 9.300781 9.273438 9.074219 9.324219 C 8.824219 9.398438 9.023438 9.449219 9.5 9.449219 C 9.976562 9.449219 10.175781 9.398438 9.949219 9.324219 Z M 8.75 6.101562 C 8.75 4.699219 8.648438 3.75 8.5 3.75 C 8.351562 3.75 8.25 4.75 8.25 6.273438 C 8.25 7.875 8.351562 8.726562 8.5 8.625 C 8.648438 8.550781 8.75 7.425781 8.75 6.101562 Z M 10.75 6.25 C 10.75 4.75 10.648438 3.75 10.5 3.75 C 10.226562 3.75 10.148438 8.300781 10.425781 8.574219 C 10.726562 8.898438 10.75 8.75 10.75 6.25 Z M 9.75 6.125 C 9.75 4.699219 9.648438 3.75 9.5 3.75 C 9.351562 3.75 9.25 4.699219 9.25 6.125 C 9.25 7.550781 9.351562 8.5 9.5 8.5 C 9.648438 8.5 9.75 7.550781 9.75 6.125 Z M 9.75 6.125 "/>
        <path style=" stroke:none;fill-rule:nonzero;fill:rgb(18.039216%,39.215686%,100%);fill-opacity:1;"
              d="M 3.25 8 L 3.25 3.25 L 5.25 3.25 C 7.675781 3.25 7.925781 3.699219 5.574219 3.800781 L 3.875 3.875 L 3.875 12.125 L 12.125 12.125 L 12.199219 8.148438 C 12.226562 5.648438 12.175781 4.074219 12 3.898438 C 11.601562 3.5 11.699219 3.25 12.25 3.25 C 12.726562 3.25 12.75 3.425781 12.75 8 L 12.75 12.75 L 3.25 12.75 Z M 3.25 8 "/>
        <path style=" stroke:none;fill-rule:nonzero;fill:rgb(18.039216%,39.215686%,100%);fill-opacity:1;"
              d="M 8.75 2.25 C 8.75 2.125 9.101562 2 9.5 2 C 9.925781 2 10.25 2.125 10.25 2.25 C 10.25 2.398438 9.925781 2.5 9.5 2.5 C 9.101562 2.5 8.75 2.398438 8.75 2.25 Z M 8.75 2.25 "/>
        <path style=" stroke:none;fill-rule:nonzero;fill:rgb(23.529412%,36.862745%,100%);fill-opacity:1;"
              d="M 2.300781 13.699219 C 2.074219 13.476562 2 11.898438 2 8.101562 C 2 3.023438 2.023438 2.800781 2.5 2.675781 C 2.898438 2.574219 2.949219 2.625 2.75 3 C 2.601562 3.25 2.5 5.550781 2.5 8.101562 C 2.5 11.949219 2.574219 12.773438 2.898438 13.101562 C 3.476562 13.699219 12.523438 13.699219 13.101562 13.101562 C 13.425781 12.773438 13.5 11.949219 13.5 8.101562 C 13.5 5.550781 13.398438 3.273438 13.273438 3.023438 C 13.101562 2.699219 13.148438 2.601562 13.523438 2.601562 C 13.976562 2.601562 14 2.851562 14 8 C 14 11.875 13.925781 13.476562 13.699219 13.699219 C 13.273438 14.125 2.726562 14.125 2.300781 13.699219 Z M 2.300781 13.699219 "/>
        <path style=" stroke:none;fill-rule:nonzero;fill:rgb(23.529412%,36.862745%,100%);fill-opacity:1;"
              d="M 3.25 8.375 C 3.25 5.699219 3.351562 4 3.5 4 C 3.648438 4 3.773438 5.625 3.800781 8.074219 L 3.875 12.125 L 12.125 12.125 L 12.199219 8.074219 C 12.226562 5.625 12.351562 4 12.5 4 C 12.648438 4 12.75 5.699219 12.75 8.375 L 12.75 12.75 L 3.25 12.75 Z M 3.25 8.375 "/>
        <path style=" stroke:none;fill-rule:nonzero;fill:rgb(23.529412%,36.862745%,100%);fill-opacity:1;"
              d="M 8.324219 10.5 C 7.800781 9.851562 7.75 9.550781 7.75 6.273438 C 7.75 4.101562 7.851562 2.75 8 2.75 C 8.148438 2.75 8.25 2.875 8.25 3 C 8.25 3.148438 8.824219 3.25 9.5 3.25 C 10.199219 3.25 10.75 3.148438 10.75 3 C 10.75 2.875 10.875 2.75 11 2.75 C 11.148438 2.75 11.25 4.101562 11.25 6.324219 C 11.226562 9.726562 11.199219 9.898438 10.625 10.574219 C 9.851562 11.449219 9.023438 11.425781 8.324219 10.5 Z M 9.949219 9.324219 C 9.699219 9.273438 9.300781 9.273438 9.074219 9.324219 C 8.824219 9.398438 9.023438 9.449219 9.5 9.449219 C 9.976562 9.449219 10.175781 9.398438 9.949219 9.324219 Z M 8.75 6.101562 C 8.75 4.699219 8.648438 3.75 8.5 3.75 C 8.351562 3.75 8.25 4.75 8.25 6.273438 C 8.25 7.875 8.351562 8.726562 8.5 8.625 C 8.648438 8.550781 8.75 7.425781 8.75 6.101562 Z M 10.75 6.25 C 10.75 4.75 10.648438 3.75 10.5 3.75 C 10.226562 3.75 10.148438 8.300781 10.425781 8.574219 C 10.726562 8.898438 10.75 8.75 10.75 6.25 Z M 9.75 6.125 C 9.75 4.699219 9.648438 3.75 9.5 3.75 C 9.351562 3.75 9.25 4.699219 9.25 6.125 C 9.25 7.550781 9.351562 8.5 9.5 8.5 C 9.648438 8.5 9.75 7.550781 9.75 6.125 Z M 9.75 6.125 "/>
        <path style=" stroke:none;fill-rule:nonzero;fill:rgb(30.980392%,33.72549%,100%);fill-opacity:1;"
              d="M 2.300781 13.699219 C 1.925781 13.324219 1.875 4 2.25 4 C 2.398438 4 2.5 5.625 2.5 8.351562 C 2.5 11.976562 2.574219 12.773438 2.898438 13.101562 C 3.476562 13.699219 12.523438 13.699219 13.101562 13.101562 C 13.425781 12.773438 13.5 11.976562 13.5 8.351562 C 13.5 5.625 13.601562 4 13.75 4 C 14.125 4 14.074219 13.324219 13.699219 13.699219 C 13.273438 14.125 2.726562 14.125 2.300781 13.699219 Z M 2.300781 13.699219 "/>
        <path style=" stroke:none;fill-rule:nonzero;fill:rgb(30.980392%,33.72549%,100%);fill-opacity:1;"
              d="M 3.25 8.875 C 3.25 3.898438 3.699219 3.625 3.800781 8.574219 L 3.875 12.125 L 12.125 12.125 L 12.199219 8.574219 C 12.300781 3.625 12.75 3.898438 12.75 8.875 L 12.75 12.75 L 3.25 12.75 Z M 3.25 8.875 "/>
        <path style=" stroke:none;fill-rule:nonzero;fill:rgb(30.980392%,33.72549%,100%);fill-opacity:1;"
              d="M 8.324219 10.5 C 7.800781 9.875 7.75 9.523438 7.75 6.898438 C 7.75 5.125 7.851562 4 8 4 C 8.148438 4 8.25 4.976562 8.25 6.398438 C 8.25 7.925781 8.351562 8.726562 8.5 8.625 C 8.648438 8.550781 8.75 7.476562 8.75 6.226562 C 8.75 4.898438 8.851562 4 9 4 C 9.148438 4 9.25 4.925781 9.25 6.25 C 9.25 7.574219 9.351562 8.5 9.5 8.5 C 9.648438 8.5 9.75 7.574219 9.75 6.25 C 9.75 4.925781 9.851562 4 10 4 C 10.148438 4 10.25 4.898438 10.25 6.226562 C 10.25 7.476562 10.375 8.550781 10.5 8.625 C 10.648438 8.726562 10.75 7.925781 10.75 6.398438 C 10.75 4.976562 10.851562 4 11 4 C 11.148438 4 11.25 5.148438 11.25 6.949219 C 11.226562 9.675781 11.199219 9.925781 10.625 10.574219 C 9.851562 11.449219 9.023438 11.425781 8.324219 10.5 Z M 9.949219 9.324219 C 9.699219 9.273438 9.300781 9.273438 9.074219 9.324219 C 8.824219 9.398438 9.023438 9.449219 9.5 9.449219 C 9.976562 9.449219 10.175781 9.398438 9.949219 9.324219 Z M 9.949219 9.324219 "/>
        <path style=" stroke:none;fill-rule:nonzero;fill:rgb(43.529412%,28.235294%,100%);fill-opacity:1;"
              d="M 2.300781 13.699219 C 1.925781 13.324219 1.875 6 2.25 6 C 2.398438 6 2.5 7.273438 2.5 9.351562 C 2.5 12.074219 2.574219 12.800781 2.898438 13.101562 C 3.476562 13.699219 12.523438 13.699219 13.101562 13.101562 C 13.425781 12.800781 13.5 12.074219 13.5 9.351562 C 13.5 7.273438 13.601562 6 13.75 6 C 14.125 6 14.074219 13.324219 13.699219 13.699219 C 13.273438 14.125 2.726562 14.125 2.300781 13.699219 Z M 2.300781 13.699219 "/>
        <path style=" stroke:none;fill-rule:nonzero;fill:rgb(43.529412%,28.235294%,100%);fill-opacity:1;"
              d="M 3.25 9.75 C 3.25 5.976562 3.699219 5.726562 3.800781 9.449219 L 3.875 12.125 L 12.125 12.125 L 12.199219 9.449219 C 12.300781 5.726562 12.75 5.976562 12.75 9.75 L 12.75 12.75 L 3.25 12.75 Z M 3.25 9.75 "/>
        <path style=" stroke:none;fill-rule:nonzero;fill:rgb(43.529412%,28.235294%,100%);fill-opacity:1;"
              d="M 8.324219 10.5 C 7.851562 9.898438 7.75 9.5 7.75 7.898438 C 7.75 6.800781 7.851562 6 8 6 C 8.148438 6 8.25 6.625 8.25 7.398438 C 8.25 8.25 8.351562 8.726562 8.5 8.625 C 8.648438 8.550781 8.75 7.925781 8.75 7.226562 C 8.75 6.550781 8.875 6 9 6 C 9.148438 6 9.25 6.574219 9.25 7.25 C 9.25 7.949219 9.375 8.5 9.5 8.5 C 9.648438 8.5 9.75 7.949219 9.75 7.25 C 9.75 6.574219 9.875 6 10 6 C 10.148438 6 10.25 6.550781 10.25 7.226562 C 10.25 7.925781 10.375 8.550781 10.5 8.625 C 10.648438 8.726562 10.75 8.25 10.75 7.398438 C 10.75 6.625 10.875 6 11 6 C 11.148438 6 11.25 6.800781 11.25 7.949219 C 11.226562 9.625 11.148438 9.976562 10.625 10.574219 C 9.851562 11.449219 9.023438 11.425781 8.324219 10.5 Z M 9.949219 9.324219 C 9.699219 9.273438 9.300781 9.273438 9.074219 9.324219 C 8.824219 9.398438 9.023438 9.449219 9.5 9.449219 C 9.976562 9.449219 10.175781 9.398438 9.949219 9.324219 Z M 9.949219 9.324219 "/>
        <path style=" stroke:none;fill-rule:nonzero;fill:rgb(50.588235%,25.490196%,100%);fill-opacity:1;"
              d="M 2.300781 13.699219 C 1.925781 13.324219 1.875 8 2.25 8 C 2.398438 8 2.5 8.949219 2.5 10.351562 C 2.5 12.175781 2.601562 12.800781 2.898438 13.101562 C 3.476562 13.699219 12.523438 13.699219 13.101562 13.101562 C 13.398438 12.800781 13.5 12.175781 13.5 10.351562 C 13.5 8.949219 13.601562 8 13.75 8 C 14.125 8 14.074219 13.324219 13.699219 13.699219 C 13.273438 14.125 2.726562 14.125 2.300781 13.699219 Z M 2.300781 13.699219 "/>
        <path style=" stroke:none;fill-rule:nonzero;fill:rgb(50.588235%,25.490196%,100%);fill-opacity:1;"
              d="M 3.25 10.625 C 3.25 8.023438 3.699219 7.773438 3.800781 10.324219 L 3.875 12.125 L 12.125 12.125 L 12.199219 10.324219 C 12.300781 7.773438 12.75 8.023438 12.75 10.625 L 12.75 12.75 L 3.25 12.75 Z M 3.25 10.625 "/>
        <path style=" stroke:none;fill-rule:nonzero;fill:rgb(50.588235%,25.490196%,100%);fill-opacity:1;"
              d="M 8.324219 10.5 C 7.75 9.773438 7.523438 8 8 8 C 8.148438 8 8.25 8.199219 8.25 8.449219 C 8.273438 8.824219 8.300781 8.824219 8.648438 8.375 C 8.976562 7.949219 9.050781 7.925781 9.25 8.25 C 9.476562 8.574219 9.523438 8.574219 9.75 8.25 C 9.949219 7.925781 10.023438 7.949219 10.351562 8.375 C 10.699219 8.824219 10.726562 8.824219 10.75 8.449219 C 10.75 8.199219 10.875 8 11 8 C 11.523438 8 11.25 9.851562 10.625 10.574219 C 9.851562 11.449219 9.023438 11.425781 8.324219 10.5 Z M 9.949219 9.324219 C 9.699219 9.273438 9.300781 9.273438 9.074219 9.324219 C 8.824219 9.398438 9.023438 9.449219 9.5 9.449219 C 9.976562 9.449219 10.175781 9.398438 9.949219 9.324219 Z M 9.949219 9.324219 "/>
        <path style=" stroke:none;fill-rule:nonzero;fill:rgb(56.862745%,22.745098%,100%);fill-opacity:1;"
              d="M 2.300781 13.699219 C 1.925781 13.324219 1.875 9.25 2.25 9.25 C 2.398438 9.25 2.5 10 2.5 10.976562 C 2.5 13.550781 2.375 13.5 8 13.5 C 13.625 13.5 13.5 13.550781 13.5 10.976562 C 13.5 10 13.601562 9.25 13.75 9.25 C 14.125 9.25 14.074219 13.324219 13.699219 13.699219 C 13.273438 14.125 2.726562 14.125 2.300781 13.699219 Z M 2.300781 13.699219 "/>
        <path style=" stroke:none;fill-rule:nonzero;fill:rgb(56.862745%,22.745098%,100%);fill-opacity:1;"
              d="M 3.25 11.25 C 3.25 9.476562 3.699219 9.226562 3.800781 10.949219 L 3.875 12.125 L 12.125 12.125 L 12.199219 10.949219 C 12.300781 9.226562 12.75 9.476562 12.75 11.25 L 12.75 12.75 L 3.25 12.75 Z M 3.25 11.25 "/>
        <path style=" stroke:none;fill-rule:nonzero;fill:rgb(56.862745%,22.745098%,100%);fill-opacity:1;"
              d="M 8.324219 10.5 C 7.625 9.625 7.601562 9.25 8.273438 9.25 C 8.550781 9.25 8.726562 9.324219 8.675781 9.449219 C 8.601562 9.550781 8.976562 9.625 9.523438 9.625 C 10.050781 9.625 10.5 9.550781 10.5 9.449219 C 10.5 9.324219 10.675781 9.25 10.875 9.25 C 11.425781 9.25 11.324219 9.773438 10.625 10.574219 C 9.851562 11.449219 9.023438 11.425781 8.324219 10.5 Z M 8.324219 10.5 "/>
        <path style=" stroke:none;fill-rule:nonzero;fill:rgb(70.980392%,16.470588%,100%);fill-opacity:1;"
              d="M 2.300781 13.699219 C 1.949219 13.351562 1.898438 11.25 2.25 11.25 C 2.398438 11.25 2.5 11.574219 2.5 11.976562 C 2.5 13.425781 2.800781 13.5 8 13.5 C 13.199219 13.5 13.5 13.425781 13.5 11.976562 C 13.5 11.574219 13.625 11.25 13.75 11.25 C 14.101562 11.25 14.050781 13.351562 13.699219 13.699219 C 13.273438 14.125 2.726562 14.125 2.300781 13.699219 Z M 2.300781 13.699219 "/>
        <path style=" stroke:none;fill-rule:nonzero;fill:rgb(70.980392%,16.470588%,100%);fill-opacity:1;"
              d="M 3.25 12 C 3.25 11.148438 3.625 11 3.824219 11.75 C 3.949219 12.226562 4.175781 12.25 8 12.25 C 11.824219 12.25 12.050781 12.226562 12.175781 11.75 C 12.375 11 12.75 11.148438 12.75 12 L 12.75 12.75 L 3.25 12.75 Z M 3.25 12 "/>
        <path style=" stroke:none;fill-rule:nonzero;fill:rgb(70.980392%,16.470588%,100%);fill-opacity:1;"
              d="M 9.175781 10.601562 C 8.851562 10.273438 9 10 9.523438 10 C 9.800781 10 10 10.125 9.949219 10.300781 C 9.824219 10.648438 9.398438 10.824219 9.175781 10.601562 Z M 9.175781 10.601562 "/>
        <path style=" stroke:none;fill-rule:nonzero;fill:rgb(76.470588%,14.117647%,100%);fill-opacity:1;"
              d="M 2.300781 13.699219 C 2.101562 13.449219 3.273438 13.375 8 13.375 C 12.75 13.375 13.898438 13.449219 13.699219 13.699219 C 13.5 13.925781 12.050781 14 8 14 C 3.949219 14 2.5 13.925781 2.300781 13.699219 Z M 2.300781 13.699219 "/>
        <path style=" stroke:none;fill-rule:nonzero;fill:rgb(76.470588%,14.117647%,100%);fill-opacity:1;"
              d="M 9.175781 10.601562 C 8.851562 10.273438 9 10 9.523438 10 C 9.800781 10 10 10.125 9.949219 10.300781 C 9.824219 10.648438 9.398438 10.824219 9.175781 10.601562 Z M 9.175781 10.601562 "/>
        <path style=" stroke:none;fill-rule:nonzero;fill:rgb(57.647059%,52.54902%,100%);fill-opacity:1;"
              d="M 9.175781 10.601562 C 8.851562 10.273438 9 10 9.523438 10 C 9.800781 10 10 10.125 9.949219 10.300781 C 9.824219 10.648438 9.398438 10.824219 9.175781 10.601562 Z M 9.175781 10.601562 "/>
        <path style=" stroke:none;fill-rule:nonzero;fill:rgb(67.843137%,55.686275%,100%);fill-opacity:1;"
              d="M 9.125 10.523438 C 8.949219 10.226562 9.425781 9.925781 9.75 10.125 C 10.023438 10.300781 9.851562 10.75 9.5 10.75 C 9.375 10.75 9.226562 10.648438 9.125 10.523438 Z M 9.125 10.523438 "/>
    </g>
</svg>
