<?xml version="1.0" encoding="UTF-8"?>
<svg xmlns="http://www.w3.org/2000/svg" width="16pt" height="16pt" viewBox="0 0 16 16" version="1.1">
    <g id="surface1">
        <path style=" stroke:none;fill-rule:nonzero;fill:rgb(27.843137%,53.333333%,78.039216%);fill-opacity:1;"
              d="M 1.398438 15.121094 C 0.960938 14.878906 0.558594 14.640625 0.480469 14.601562 C 0.398438 14.519531 7.761719 1.480469 8.238281 0.878906 C 8.28125 0.800781 8.761719 1.039062 9.320312 1.398438 C 10.28125 2 10.320312 2 10.558594 1 C 10.71875 0.398438 11 0.078125 11.238281 0.238281 C 11.480469 0.398438 12.558594 0.480469 13.640625 0.441406 L 15.601562 0.398438 L 15.601562 15.601562 L 13.199219 15.601562 L 13.199219 9.121094 L 13.160156 2.601562 L 12.199219 5.601562 C 11.679688 7.238281 10.761719 10.199219 10.199219 12.160156 L 9.121094 15.679688 L 7.878906 15.441406 C 7.199219 15.320312 6.601562 15.121094 6.480469 15.039062 C 6.398438 14.960938 6.960938 12.800781 7.761719 10.28125 C 8.558594 7.761719 9.199219 5.519531 9.199219 5.359375 C 9.199219 5.160156 7.839844 7.398438 6.160156 10.320312 C 4.519531 13.199219 2.921875 15.601562 2.679688 15.601562 C 2.398438 15.601562 1.839844 15.359375 1.398438 15.121094 Z M 1.398438 15.121094 "/>
        <path style=" stroke:none;fill-rule:nonzero;fill:rgb(27.843137%,53.333333%,78.039216%);fill-opacity:1;"
              d="M 1.921875 4.320312 C 2.28125 3.960938 2.160156 3.601562 1.320312 2.71875 C 0.320312 1.640625 0.28125 1.558594 0.921875 0.921875 C 1.558594 0.28125 1.640625 0.320312 2.71875 1.320312 C 3.601562 2.160156 3.960938 2.28125 4.320312 1.921875 C 4.679688 1.558594 4.800781 1.800781 4.800781 3.121094 L 4.800781 4.800781 L 3.121094 4.800781 C 1.800781 4.800781 1.558594 4.679688 1.921875 4.320312 Z M 1.921875 4.320312 "/>
        <path style=" stroke:none;fill-rule:nonzero;fill:rgb(58.823529%,77.254902%,94.509804%);fill-opacity:1;"
              d="M 1.878906 14.71875 C 1.28125 14.238281 1.558594 13.601562 4.839844 7.921875 C 8.160156 2.160156 8.519531 1.640625 9.238281 2.039062 C 10.039062 2.441406 10.039062 2.480469 9.160156 3.921875 C 8.679688 4.71875 7.039062 7.601562 5.519531 10.320312 C 3.960938 13 2.679688 15.199219 2.640625 15.199219 C 2.601562 15.199219 2.238281 14.960938 1.878906 14.71875 Z M 1.878906 14.71875 "/>
        <path style=" stroke:none;fill-rule:nonzero;fill:rgb(58.823529%,77.254902%,94.509804%);fill-opacity:1;"
              d="M 7.601562 14.800781 C 7.121094 14.480469 7.160156 14.078125 7.878906 11.71875 C 8.359375 10.238281 9.320312 7.160156 10 4.921875 C 10.679688 2.640625 11.359375 0.800781 11.519531 0.800781 C 11.679688 0.800781 12.039062 0.960938 12.320312 1.160156 C 12.761719 1.398438 12.441406 2.878906 10.761719 8.359375 C 9.640625 12.121094 8.558594 15.199219 8.441406 15.199219 C 8.320312 15.199219 7.921875 15.039062 7.601562 14.800781 Z M 7.601562 14.800781 "/>
        <path style=" stroke:none;fill-rule:nonzero;fill:rgb(58.823529%,77.254902%,94.509804%);fill-opacity:1;"
              d="M 13.601562 8 C 13.601562 1.078125 13.640625 0.800781 14.398438 0.800781 C 15.160156 0.800781 15.199219 1.078125 15.199219 8 C 15.199219 14.921875 15.160156 15.199219 14.398438 15.199219 C 13.640625 15.199219 13.601562 14.921875 13.601562 8 Z M 13.601562 8 "/>
        <path style=" stroke:none;fill-rule:nonzero;fill:rgb(58.823529%,77.254902%,94.509804%);fill-opacity:1;"
              d="M 2.921875 4.121094 C 3.078125 3.960938 2.71875 3.359375 2.121094 2.71875 C 1.558594 2.121094 1.199219 1.480469 1.320312 1.320312 C 1.480469 1.199219 2.121094 1.558594 2.71875 2.121094 C 3.359375 2.71875 3.960938 3.078125 4.121094 2.921875 C 4.28125 2.800781 4.398438 3.039062 4.398438 3.519531 C 4.398438 4.160156 4.160156 4.398438 3.519531 4.398438 C 3.039062 4.398438 2.800781 4.28125 2.921875 4.121094 Z M 2.921875 4.121094 "/>
        <path style=" stroke:none;fill-rule:nonzero;fill:rgb(87.058824%,93.72549%,99.215686%);fill-opacity:1;"
              d="M 13.601562 8 C 13.601562 1.078125 13.640625 0.800781 14.398438 0.800781 C 15.160156 0.800781 15.199219 1.078125 15.199219 8 C 15.199219 14.921875 15.160156 15.199219 14.398438 15.199219 C 13.640625 15.199219 13.601562 14.921875 13.601562 8 Z M 13.601562 8 "/>
        <path style=" stroke:none;fill-rule:nonzero;fill:rgb(87.058824%,93.72549%,99.215686%);fill-opacity:1;"
              d="M 1.800781 14.398438 C 1.519531 13.960938 8.28125 2 8.800781 2 C 9 2 9.238281 2.160156 9.398438 2.398438 C 9.640625 2.800781 2.878906 14.800781 2.359375 14.800781 C 2.199219 14.800781 1.921875 14.601562 1.800781 14.398438 Z M 1.800781 14.398438 "/>
        <path style=" stroke:none;fill-rule:nonzero;fill:rgb(87.058824%,93.72549%,99.215686%);fill-opacity:1;"
              d="M 7.480469 14.519531 C 7.160156 13.878906 11.320312 1.199219 11.839844 1.199219 C 12.640625 1.199219 12.558594 1.601562 10.519531 8.519531 C 8.839844 14.121094 8.078125 15.601562 7.480469 14.519531 Z M 7.480469 14.519531 "/>
    </g>
</svg>
